-------------------------------------------------------------------------------
Test set: org.kaerman.myelo.util.EloUtilTest
-------------------------------------------------------------------------------
Tests run: 3, Failures: 0, Errors: 0, Skipped: 0, Time elapsed: 0.008 s - in org.kaerman.myelo.util.EloUtilTest
