-------------------------------------------------------------------------------
Test set: org.kaerman.myelo.parser.CompetitorParserTest
-------------------------------------------------------------------------------
Tests run: 4, Failures: 0, Errors: 0, Skipped: 0, Time elapsed: 0.01 s - in org.kaerman.myelo.parser.CompetitorParserTest
