-------------------------------------------------------------------------------
Test set: org.kaerman.myelo.consumer.CompetitorOrderConsumerTest
-------------------------------------------------------------------------------
Tests run: 2, Failures: 0, Errors: 0, Skipped: 0, Time elapsed: 0.095 s - in org.kaerman.myelo.consumer.CompetitorOrderConsumerTest
